Adatvizualizáció I.
…
# Összes ország, 2007-es adatok
(gapminder_2007 <- gapminder %>%
  filter(year == 2007))

## # A tibble: 142 x 6
##    country     continent  year lifeExp       pop gdpPercap
##    <fct>       <fct>     <int>   <dbl>     <int>     <dbl>
##  1 Afghanistan Asia       2007    43.8  31889923       975
##  2 Albania     Europe     2007    76.4   3600523      5937
##  3 Algeria     Africa     2007    72.3  33333216      6223
##  4 Angola      Africa     2007    42.7  12420476      4797
##  5 Argentina   Americas   2007    75.3  40301927     12779
##  6 Australia   Oceania    2007    81.2  20434176     34435
##  7 Austria     Europe     2007    79.8   8199783     36126
##  8 Bahrain     Asia       2007    75.6    708573     29796
##  9 Bangladesh  Asia       2007    64.1 150448339      1391
## 10 Belgium     Europe     2007    79.4  10392226     33693
## # ... with 132 more rows
…
## # A tibble: 5 x 2
##   continent median_life_exp
##   <fct>               <dbl>
## 1 Africa               52.9
## 2 Americas             72.9
## 3 Asia                 72.4
## 4 Europe               78.6
## 5 Oceania              80.7

# Európa és Amerika országainak várható élettartama 1980-ban, 1990-ben és 2007-ben
(eur_am_1957_1987_2007 <- gapminder %>%
  filter(year %in% c(1957,1987,2007) & continent %in% c('Europe','Americas')))

## # A tibble: 165 x 6
##    country   continent  year lifeExp      pop gdpPercap
##    <fct>     <fct>     <int>   <dbl>    <int>     <dbl>
##  1 Albania   Europe     1957    59.3  1476505      1942
##  2 Albania   Europe     1987    72.0  3075321      3739
##  3 Albania   Europe     2007    76.4  3600523      5937
##  4 Argentina Americas   1957    64.4 19610538      6857
##  5 Argentina Americas   1987    70.8 31620918      9140
##  6 Argentina Americas   2007    75.3 40301927     12779
##  7 Austria   Europe     1957    67.5  6965860      8843
##  8 Austria   Europe     1987    74.9  7578903     23688
##  9 Austria   Europe     2007    79.8  8199783     36126
## 10 Belgium   Europe     1957    69.2  8989111      9715
## # ... with 155 more rows
…
